{
    "key": "group_560ab126562ba",
    "title": "[Exhibitions]",
    "fields": [
        {
            "key": "field_5e24c5f6f585f",
            "label": "Is Current Exhibition?",
            "name": "is_current_exhibition",
            "type": "true_false",
            "instructions": "Check if is the current exhibition",
            "required": 0,
            "conditional_logic": 0,
            "wrapper": {
                "width": "",
                "class": "",
                "id": ""
            },
            "message": "Yes",
            "default_value": 0,
            "ui": 0,
            "ui_on_text": "",
            "ui_off_text": ""
        },
        {
            "key": "field_53a9ce6f8002a",
            "label": "Exhibition Name",
            "name": "exhibition_name",
            "type": "text",
            "instructions": "Use for single artist",
            "required": 0,
            "conditional_logic": 0,
            "wrapper": {
                "width": "50",
                "class": "",
                "id": ""
            },
            "default_value": "",
            "placeholder": "",
            "prepend": "",
            "append": "",
            "maxlength": ""
        },
        {
            "key": "field_5e502b0ab4715",
            "label": "Artists Name",
            "name": "artists_name",
            "type": "text",
            "instructions": "Use for multiple artists",
            "required": 0,
            "conditional_logic": 0,
            "wrapper": {
                "width": "50",
                "class": "",
                "id": ""
            },
            "default_value": "",
            "placeholder": "",
            "prepend": "",
            "append": "",
            "maxlength": ""
        },
        {
            "key": "field_56e9cc1bdc358",
            "label": "Exhibition Date",
            "name": "exhibition_date",
            "type": "text",
            "instructions": "",
            "required": 0,
            "conditional_logic": 0,
            "wrapper": {
                "width": 50,
                "class": "",
                "id": ""
            },
            "default_value": "",
            "placeholder": "",
            "prepend": "",
            "append": "",
            "maxlength": "",
            "readonly": 0,
            "disabled": 0
        },
        {
            "key": "field_53a9cf0879c24",
            "label": "Opening Reception",
            "name": "opening_reception",
            "type": "text",
            "instructions": "",
            "required": 0,
            "conditional_logic": 0,
            "wrapper": {
                "width": 50,
                "class": "",
                "id": ""
            },
            "default_value": "",
            "placeholder": "",
            "prepend": "",
            "append": "",
            "formatting": "html",
            "maxlength": "",
            "readonly": 0,
            "disabled": 0
        },
        {
            "key": "field_53a9cd506a532",
            "label": "Press Release",
            "name": "press_release",
            "type": "wysiwyg",
            "instructions": "",
            "required": 0,
            "conditional_logic": 0,
            "wrapper": {
                "width": "",
                "class": "",
                "id": ""
            },
            "default_value": "",
            "toolbar": "full",
            "media_upload": 0,
            "tabs": "all",
            "delay": 0
        },
        {
            "key": "field_56bcc1fe4c631",
            "label": "Artists",
            "name": "expo_artist",
            "type": "post_object",
            "instructions": "",
            "required": 0,
            "conditional_logic": 0,
            "wrapper": {
                "width": "50",
                "class": "",
                "id": ""
            },
            "post_type": [
                "artists"
            ],
            "taxonomy": "",
            "allow_null": 0,
            "multiple": 1,
            "return_format": "object",
            "ui": 1
        },
        {
            "key": "field_56bcb7e21844f",
            "label": "PRESS",
            "name": "p_expo",
            "type": "repeater",
            "instructions": "",
            "required": 0,
            "conditional_logic": 0,
            "wrapper": {
                "width": "",
                "class": "",
                "id": ""
            },
            "collapsed": "field_56bcb7eb18450",
            "min": 0,
            "max": 0,
            "layout": "row",
            "button_label": "Add Press",
            "sub_fields": [
                {
                    "key": "field_56bcb7eb18450",
                    "label": "Title",
                    "name": "e_p_title",
                    "type": "text",
                    "instructions": "",
                    "required": 0,
                    "conditional_logic": 0,
                    "wrapper": {
                        "width": 50,
                        "class": "",
                        "id": ""
                    },
                    "default_value": "",
                    "placeholder": "",
                    "prepend": "",
                    "append": "",
                    "maxlength": "",
                    "readonly": 0,
                    "disabled": 0
                },
                {
                    "key": "field_56bcb82218451",
                    "label": "Link",
                    "name": "e_p_link",
                    "type": "file",
                    "instructions": "",
                    "required": 0,
                    "conditional_logic": 0,
                    "wrapper": {
                        "width": 50,
                        "class": "",
                        "id": ""
                    },
                    "return_format": "url",
                    "library": "all",
                    "min_size": "",
                    "max_size": "",
                    "mime_types": ""
                }
            ]
        },
        {
            "key": "field_5e6f74249e99f",
            "label": "3D Tour",
            "name": "3d_tour",
            "type": "wysiwyg",
            "instructions": "",
            "required": 0,
            "conditional_logic": 0,
            "wrapper": {
                "width": "",
                "class": "",
                "id": ""
            },
            "default_value": "",
            "tabs": "text",
            "media_upload": 0,
            "toolbar": "full",
            "delay": 0
        }
    ],
    "location": [
        [
            {
                "param": "post_type",
                "operator": "==",
                "value": "exhibitions"
            }
        ]
    ],
    "menu_order": 0,
    "position": "acf_after_title",
    "style": "default",
    "label_placement": "top",
    "instruction_placement": "label",
    "hide_on_screen": [
        "the_content",
        "excerpt",
        "discussion",
        "comments",
        "revisions",
        "slug",
        "author",
        "format",
        "tags",
        "send-trackbacks"
    ],
    "active": true,
    "description": "",
    "modified": 1613505242
}