{
    "key": "group_5dc40badc3034",
    "title": "[OPTIONS] - Artists",
    "fields": [
        {
            "key": "field_5dc40bb76b70b",
            "label": "Artists",
            "name": "artists",
            "type": "post_object",
            "instructions": "Drag and drop to change the order.",
            "required": 0,
            "conditional_logic": 0,
            "wrapper": {
                "width": "",
                "class": "",
                "id": ""
            },
            "post_type": [
                "artists"
            ],
            "taxonomy": "",
            "allow_null": 0,
            "multiple": 1,
            "return_format": "object",
            "ui": 1
        },
        {
            "key": "field_5dc40bd36b70c",
            "label": "Additional Artists",
            "name": "additional_artists",
            "type": "post_object",
            "instructions": "Drag and drop to change the order.",
            "required": 0,
            "conditional_logic": 0,
            "wrapper": {
                "width": "",
                "class": "",
                "id": ""
            },
            "post_type": [
                "artists",
                "exhibitions"
            ],
            "taxonomy": "",
            "allow_null": 0,
            "multiple": 1,
            "return_format": "object",
            "ui": 1
        }
    ],
    "location": [
        [
            {
                "param": "options_page",
                "operator": "==",
                "value": "acf-artists"
            }
        ]
    ],
    "menu_order": 0,
    "position": "normal",
    "style": "seamless",
    "label_placement": "top",
    "instruction_placement": "label",
    "hide_on_screen": "",
    "active": true,
    "description": "",
    "modified": 1600695564
}